^D:\DOCUMENTS\DOWNLOADS\AS1\DEBUG\EXAMPLE_01.OBJ
/OUT:"D:\DOCUMENTS\DOWNLOADS\AS1\DEBUG\AS1.EXE" /INCREMENTAL /NOLOGO /LIBPATH:"glut-3.7.6-bin" kernel32.lib user32.lib gdi32.lib winspool.lib comdlg32.lib advapi32.lib shell32.lib ole32.lib oleaut32.lib uuid.lib odbc32.lib odbccp32.lib /MANIFEST /MANIFESTUAC:"level='asInvoker' uiAccess='false'" /manifest:embed /DEBUG /PDB:"D:\DOCUMENTS\DOWNLOADS\AS1\DEBUG\AS1.PDB" /SUBSYSTEM:CONSOLE /TLBID:1 /DYNAMICBASE /NXCOMPAT /IMPLIB:"D:\DOCUMENTS\DOWNLOADS\AS1\DEBUG\AS1.LIB" /MACHINE:X86 DEBUG\EXAMPLE_01.OBJ
^D:\DOCUMENTS\GOOGLE DRIVE\DOCS\# CLASSES\29 2013 FALL - CS184\ASSIGNMENTS\1\FILES\DEBUG\EXAMPLE_01.OBJ
/OUT:"D:\DOCUMENTS\GOOGLE DRIVE\DOCS\# CLASSES\29 2013 FALL - CS184\ASSIGNMENTS\1\FILES\DEBUG\AS1.EXE" /INCREMENTAL /NOLOGO /LIBPATH:"glut-3.7.6-bin" kernel32.lib user32.lib gdi32.lib winspool.lib comdlg32.lib advapi32.lib shell32.lib ole32.lib oleaut32.lib uuid.lib odbc32.lib odbccp32.lib /MANIFEST /MANIFESTUAC:"level='asInvoker' uiAccess='false'" /manifest:embed /DEBUG /PDB:"D:\DOCUMENTS\GOOGLE DRIVE\DOCS\# CLASSES\29 2013 FALL - CS184\ASSIGNMENTS\1\FILES\DEBUG\AS1.PDB" /SUBSYSTEM:CONSOLE /TLBID:1 /DYNAMICBASE /NXCOMPAT /IMPLIB:"D:\DOCUMENTS\GOOGLE DRIVE\DOCS\# CLASSES\29 2013 FALL - CS184\ASSIGNMENTS\1\FILES\DEBUG\AS1.LIB" /MACHINE:X86 DEBUG\EXAMPLE_01.OBJ
